{
  "modelName" : "overrides",
  "entityName" : "SystemUsers",
  "tableName" : "system_users",
  "unamePropertyName" : "username",
  "unameColumnName" : "username",
  "uidPropertyName" : "id",
  "uidColumnName" : "ID",
  "pwPropertyName" : "password",
  "pwColumnName" : "password",
  "rolePropertyName" : "role",
  "roleColumnName" : "role",
  "useRolesQuery" : false,
  "rolesByUsernameQuery" : "",
  "tenantIdField" : null,
  "defTenantId" : 0,
  "tenantIdPropertyName" : null,
  "queryType" : "HQL"
}