{
  "OverridesVendorsData" : {
    "_id" : "wm-OverridesVendorsData-wm.LiveVariable-1522255611714",
    "name" : "OverridesVendorsData",
    "owner" : "Page",
    "category" : "wm.LiveVariable",
    "dataBinding" : [ ],
    "operation" : "read",
    "dataSet" : [ ],
    "type" : "Vendors",
    "isList" : true,
    "saveInPhonegap" : false,
    "maxResults" : 45,
    "designMaxResults" : 10,
    "inFlightBehavior" : "executeLast",
    "startUpdate" : true,
    "autoUpdate" : true,
    "transformationRequired" : false,
    "liveSource" : "overrides",
    "ignoreCase" : true,
    "matchMode" : "start",
    "orderBy" : "vendorId asc",
    "propertiesMap" : {
      "columns" : [ {
        "fieldName" : "goals",
        "type" : "integer",
        "fullyQualifiedType" : "integer",
        "columnName" : "goal_id",
        "isPrimaryKey" : false,
        "notNull" : false,
        "length" : 0,
        "precision" : 10,
        "generator" : "assigned",
        "isRelated" : true,
        "relatedTableName" : "goals",
        "relatedEntityName" : "Goals",
        "relatedColumnName" : "goalId",
        "relatedFieldName" : "goals.goalId",
        "isList" : false,
        "targetTable" : "goals",
        "scale" : 0,
        "columns" : [ {
          "fieldName" : "goalId",
          "type" : "integer",
          "fullyQualifiedType" : "integer",
          "columnName" : "goal_id",
          "isPrimaryKey" : true,
          "notNull" : true,
          "length" : 0,
          "precision" : 10,
          "generator" : "assigned",
          "isRelated" : false,
          "scale" : 0
        }, {
          "fieldName" : "name",
          "type" : "string",
          "fullyQualifiedType" : "string",
          "columnName" : "name",
          "isPrimaryKey" : false,
          "notNull" : true,
          "length" : 200,
          "precision" : 0,
          "generator" : "assigned",
          "isRelated" : false,
          "scale" : 0
        }, {
          "fieldName" : "modified",
          "type" : "datetime",
          "fullyQualifiedType" : "datetime",
          "columnName" : "modified",
          "isPrimaryKey" : false,
          "notNull" : false,
          "length" : 0,
          "precision" : 0,
          "generator" : "assigned",
          "isRelated" : false,
          "systemInserted" : true,
          "systemUpdated" : true,
          "scale" : 0
        } ]
      }, {
        "fieldName" : "forecastTypes",
        "type" : "integer",
        "fullyQualifiedType" : "integer",
        "columnName" : "forecast_type_id",
        "isPrimaryKey" : false,
        "notNull" : false,
        "length" : 0,
        "precision" : 10,
        "generator" : "assigned",
        "isRelated" : true,
        "relatedTableName" : "forecast_types",
        "relatedEntityName" : "ForecastTypes",
        "relatedColumnName" : "forecastTypeId",
        "relatedFieldName" : "forecastTypes.forecastTypeId",
        "isList" : false,
        "targetTable" : "forecast_types",
        "scale" : 0,
        "columns" : [ {
          "fieldName" : "forecastTypeId",
          "type" : "integer",
          "fullyQualifiedType" : "integer",
          "columnName" : "forecast_type_id",
          "isPrimaryKey" : true,
          "notNull" : true,
          "length" : 0,
          "precision" : 10,
          "generator" : "assigned",
          "isRelated" : false,
          "scale" : 0
        }, {
          "fieldName" : "name",
          "type" : "string",
          "fullyQualifiedType" : "string",
          "columnName" : "name",
          "isPrimaryKey" : false,
          "notNull" : true,
          "length" : 200,
          "precision" : 0,
          "generator" : "assigned",
          "isRelated" : false,
          "scale" : 0
        }, {
          "fieldName" : "modified",
          "type" : "datetime",
          "fullyQualifiedType" : "datetime",
          "columnName" : "modified",
          "isPrimaryKey" : false,
          "notNull" : false,
          "length" : 0,
          "precision" : 0,
          "generator" : "assigned",
          "isRelated" : false,
          "systemInserted" : true,
          "systemUpdated" : true,
          "scale" : 0
        } ]
      }, {
        "fieldName" : "overrideTypes",
        "type" : "integer",
        "fullyQualifiedType" : "integer",
        "columnName" : "override_type_id",
        "isPrimaryKey" : false,
        "notNull" : false,
        "length" : 0,
        "precision" : 10,
        "generator" : "assigned",
        "isRelated" : true,
        "relatedTableName" : "override_types",
        "relatedEntityName" : "OverrideTypes",
        "relatedColumnName" : "overrideTypeId",
        "relatedFieldName" : "overrideTypes.overrideTypeId",
        "isList" : false,
        "targetTable" : "override_types",
        "scale" : 0,
        "columns" : [ {
          "fieldName" : "overrideTypeId",
          "type" : "integer",
          "fullyQualifiedType" : "integer",
          "columnName" : "override_type_id",
          "isPrimaryKey" : true,
          "notNull" : true,
          "length" : 0,
          "precision" : 10,
          "generator" : "assigned",
          "isRelated" : false,
          "scale" : 0
        }, {
          "fieldName" : "annually",
          "type" : "integer",
          "fullyQualifiedType" : "integer",
          "columnName" : "annually",
          "isPrimaryKey" : false,
          "notNull" : false,
          "length" : 0,
          "precision" : 10,
          "generator" : "assigned",
          "isRelated" : false,
          "scale" : 0
        }, {
          "fieldName" : "quarterly",
          "type" : "integer",
          "fullyQualifiedType" : "integer",
          "columnName" : "quarterly",
          "isPrimaryKey" : false,
          "notNull" : false,
          "length" : 0,
          "precision" : 10,
          "generator" : "assigned",
          "isRelated" : false,
          "scale" : 0
        }, {
          "fieldName" : "name",
          "type" : "string",
          "fullyQualifiedType" : "string",
          "columnName" : "Name",
          "isPrimaryKey" : false,
          "notNull" : false,
          "length" : 30,
          "precision" : 0,
          "generator" : "assigned",
          "isRelated" : false,
          "scale" : 0
        }, {
          "fieldName" : "modified",
          "type" : "datetime",
          "fullyQualifiedType" : "datetime",
          "columnName" : "modified",
          "isPrimaryKey" : false,
          "notNull" : false,
          "length" : 0,
          "precision" : 0,
          "generator" : "assigned",
          "isRelated" : false,
          "systemInserted" : true,
          "systemUpdated" : true,
          "scale" : 0
        } ]
      }, {
        "fieldName" : "types",
        "type" : "integer",
        "fullyQualifiedType" : "integer",
        "columnName" : "type_id",
        "isPrimaryKey" : false,
        "notNull" : false,
        "length" : 0,
        "precision" : 10,
        "generator" : "assigned",
        "isRelated" : true,
        "relatedTableName" : "types",
        "relatedEntityName" : "Types",
        "relatedColumnName" : "typeId",
        "relatedFieldName" : "types.typeId",
        "isList" : false,
        "targetTable" : "types",
        "scale" : 0,
        "columns" : [ {
          "fieldName" : "typeId",
          "type" : "integer",
          "fullyQualifiedType" : "integer",
          "columnName" : "type_id",
          "isPrimaryKey" : true,
          "notNull" : true,
          "length" : 0,
          "precision" : 10,
          "generator" : "assigned",
          "isRelated" : false,
          "scale" : 0
        }, {
          "fieldName" : "name",
          "type" : "string",
          "fullyQualifiedType" : "string",
          "columnName" : "name",
          "isPrimaryKey" : false,
          "notNull" : true,
          "length" : 200,
          "precision" : 0,
          "generator" : "assigned",
          "isRelated" : false,
          "scale" : 0
        }, {
          "fieldName" : "modified",
          "type" : "datetime",
          "fullyQualifiedType" : "datetime",
          "columnName" : "modified",
          "isPrimaryKey" : false,
          "notNull" : false,
          "length" : 0,
          "precision" : 0,
          "generator" : "assigned",
          "isRelated" : false,
          "systemInserted" : true,
          "systemUpdated" : true,
          "scale" : 0
        } ]
      }, {
        "fieldName" : "vendorId",
        "type" : "integer",
        "fullyQualifiedType" : "integer",
        "columnName" : "vendor_id",
        "isPrimaryKey" : true,
        "notNull" : true,
        "length" : 0,
        "precision" : 10,
        "generator" : "identity",
        "isRelated" : false,
        "scale" : 0
      }, {
        "fieldName" : "name",
        "type" : "string",
        "fullyQualifiedType" : "string",
        "columnName" : "name",
        "isPrimaryKey" : false,
        "notNull" : true,
        "length" : 200,
        "precision" : 0,
        "generator" : "assigned",
        "isRelated" : false,
        "scale" : 0
      }, {
        "fieldName" : "modified",
        "type" : "timestamp",
        "fullyQualifiedType" : "timestamp",
        "columnName" : "modified",
        "isPrimaryKey" : false,
        "notNull" : true,
        "length" : 0,
        "precision" : 0,
        "generator" : "assigned",
        "isRelated" : false,
        "systemInserted" : true,
        "systemUpdated" : true,
        "scale" : 0
      }, {
        "fieldName" : "vendorKey",
        "type" : "integer",
        "fullyQualifiedType" : "integer",
        "columnName" : "vendor_key",
        "isPrimaryKey" : false,
        "notNull" : false,
        "length" : 0,
        "precision" : 10,
        "generator" : "assigned",
        "isRelated" : false,
        "scale" : 0
      }, {
        "fieldName" : "reportYear",
        "type" : "integer",
        "fullyQualifiedType" : "integer",
        "columnName" : "report_year",
        "isPrimaryKey" : false,
        "notNull" : false,
        "length" : 0,
        "precision" : 10,
        "generator" : "assigned",
        "isRelated" : false,
        "scale" : 0
      } ],
      "entityName" : "Vendors",
      "fullyQualifiedName" : "com.overrides.overrides.Vendors",
      "tableType" : "TABLE",
      "primaryFields" : [ "vendorId" ]
    },
    "isDefault" : true,
    "bindCount" : 1,
    "tableName" : "vendors",
    "tableType" : "TABLE",
    "properties" : [ "goals", "forecastTypes", "overrideTypes", "types" ],
    "relatedTables" : [ {
      "columnName" : "goals",
      "relationName" : "goals",
      "type" : "Goals",
      "watchOn" : "OverridesGoalsData",
      "package" : "com.overrides.overrides.Vendors"
    }, {
      "columnName" : "forecastTypes",
      "relationName" : "forecastTypes",
      "type" : "ForecastTypes",
      "watchOn" : "OverridesForecastTypesData",
      "package" : "com.overrides.overrides.Vendors"
    }, {
      "columnName" : "overrideTypes",
      "relationName" : "overrideTypes",
      "type" : "OverrideTypes",
      "watchOn" : "OverridesOverrideTypesData",
      "package" : "com.overrides.overrides.Vendors"
    }, {
      "columnName" : "types",
      "relationName" : "types",
      "type" : "Types",
      "watchOn" : "OverridesTypesData",
      "package" : "com.overrides.overrides.Vendors"
    } ],
    "filterFields" : { },
    "package" : "com.overrides.overrides.Vendors"
  }
}